…
We see that as expected, there is variety in the mean rating across
movies and users. My next step is to factor this variance into my model
to hopefully improve my predictions. I chose to first include the
difference in users, which I termed “user bias”. User bias was
calculated by subtracting the total mean rating of 3.49 from all ratings
and then taking the average rating for each user, which shows the users
average difference from the mean rating.

    ## # A tibble: 610 x 2
    ##    userId user_bias
    ##     <int>     <dbl>
    ##  1      1    0.858 
    ##  2      2    0.388 
    ##  3      3   -0.668 
    ##  4      4    0.179 
    ##  5      5    0.398 
    ##  6      6   -0.0405
    ##  7      7   -0.161 
    ##  8      8   -0.110 
    ##  9      9   -0.379 
    ## 10     10   -0.245 
    ## # … with 600 more rows

If I add the user bias to the default prediction of 3.49, my predictions
should more accurately reflect the true ratings. Incorporating user bias
into the model decreases the RMSE to .93, which is a significant
improvement. I now look to add the movie bias into the model, but the
movie bias must account for the fact that I have already added the user
bias. I will calculate the movie bias by subtracting both the overall
mean rating and the user bias from each rating, and the mean of the
resulting ratings will show whether certain movies are above or below
average.

    ## # A tibble: 9,724 x 2
    ##    movieId movie_bias
    ##      <dbl>      <dbl>
    ##  1       1     0.368 
    ##  2       2    -0.0235
    ##  3       3    -0.193 
    ##  4       4    -1.20  
    ##  5       5    -0.540 
    ##  6       6     0.370 
    ##  7       7    -0.316 
    ##  8       8    -0.716 
    ##  9       9    -0.348 
    ## 10      10     0.0246
    ## # … with 9,714 more rows
…
